%YAML 1.1
%TAG !u! tag:unity3d.com,2011:
--- !u!74 &7400000
AnimationClip:
  m_ObjectHideFlags: 0
  m_CorrespondingSourceObject: {fileID: 0}
  m_PrefabInstance: {fileID: 0}
  m_PrefabAsset: {fileID: 0}
  m_Name: ChestOpen
  serializedVersion: 6
  m_Legacy: 0
  m_Compressed: 0
  m_UseHighQualityCurve: 1
  m_RotationCurves: []
  m_CompressedRotationCurves: []
  m_EulerCurves: []
  m_PositionCurves: []
  m_ScaleCurves: []
  m_FloatCurves: []
  m_PPtrCurves:
  - curve:
    - time: 0
      value: {fileID: 21300000, guid: 3be80395f95ffb04694877d1fa859186, type: 3}
    - time: 0.033333335
      value: {fileID: 21300000, guid: 9e19bafb38e19d24cbad251335d65166, type: 3}
    - time: 0.06666667
      value: {fileID: 21300000, guid: c4bea619d180d7745a5058663ac22ba0, type: 3}
    - time: 0.1
      value: {fileID: 21300000, guid: 12e8c79b418fac9458dbb629b090ccfd, type: 3}
    - time: 0.13333334
      value: {fileID: 21300000, guid: 409750627d6559040b72641e9cf1c697, type: 3}
    - time: 0.16666667
      value: {fileID: 21300000, guid: 00d99954bdc3ad341a4c7c8704d71198, type: 3}
    - time: 0.2
      value: {fileID: 21300000, guid: 87bc8a0b724223f4e8b1b548d0fff68b, type: 3}
    - time: 0.23333333
      value: {fileID: 21300000, guid: 8dbeb0446c1273c42b1f8b69e6ee378f, type: 3}
    - time: 0.26666668
      value: {fileID: 21300000, guid: 847188f1e9287e444ba5304ebb01018d, type: 3}
    attribute: m_Sprite
    path: 
    classID: 212
    script: {fileID: 0}
  m_SampleRate: 60
  m_WrapMode: 0
  m_Bounds:
    m_Center: {x: 0, y: 0, z: 0}
    m_Extent: {x: 0, y: 0, z: 0}
  m_ClipBindingConstant:
    genericBindings:
    - serializedVersion: 2
      path: 0
      attribute: 0
      script: {fileID: 0}
      typeID: 212
      customType: 23
      isPPtrCurve: 1
    pptrCurveMapping:
    - {fileID: 21300000, guid: 3be80395f95ffb04694877d1fa859186, type: 3}
    - {fileID: 21300000, guid: 9e19bafb38e19d24cbad251335d65166, type: 3}
    - {fileID: 21300000, guid: c4bea619d180d7745a5058663ac22ba0, type: 3}
    - {fileID: 21300000, guid: 12e8c79b418fac9458dbb629b090ccfd, type: 3}
    - {fileID: 21300000, guid: 409750627d6559040b72641e9cf1c697, type: 3}
    - {fileID: 21300000, guid: 00d99954bdc3ad341a4c7c8704d71198, type: 3}
    - {fileID: 21300000, guid: 87bc8a0b724223f4e8b1b548d0fff68b, type: 3}
    - {fileID: 21300000, guid: 8dbeb0446c1273c42b1f8b69e6ee378f, type: 3}
    - {fileID: 21300000, guid: 847188f1e9287e444ba5304ebb01018d, type: 3}
  m_AnimationClipSettings:
    serializedVersion: 2
    m_AdditiveReferencePoseClip: {fileID: 0}
    m_AdditiveReferencePoseTime: 0
    m_StartTime: 0
    m_StopTime: 0.28333336
    m_OrientationOffsetY: 0
    m_Level: 0
    m_CycleOffset: 0
    m_HasAdditiveReferencePose: 0
    m_LoopTime: 0
    m_LoopBlend: 0
    m_LoopBlendOrientation: 0
    m_LoopBlendPositionY: 0
    m_LoopBlendPositionXZ: 0
    m_KeepOriginalOrientation: 0
    m_KeepOriginalPositionY: 1
    m_KeepOriginalPositionXZ: 0
    m_HeightFromFeet: 0
    m_Mirror: 0
  m_EditorCurves: []
  m_EulerEditorCurves: []
  m_HasGenericRootTransform: 0
  m_HasMotionFloatCurves: 0
  m_Events: []
